﻿Utskrift fra Lovdata - 04.04.2019 20:53

 

Kongeriget Norges Grundlov, given i Rigsforsamlingen paa Eidsvold den 17de Mai 1814,

Gjelder fra: 20.02.2007 - HISTORISK VERSJON

Dato
17.05.1814
Departement
Justis- og beredskapsdepartementet
Publisert
ISBN 82-504-1000-9
Sist endret
FOR-2007-03-30-364 fra 20.02.2007
Korttittel
Grunnloven – Grl.



Innholdsfortegnelse
Kongeriget Norges Grundlov, given i Rigsforsamlingen paa Eidsvold den 17de Mai 1814,	1
Innholdsfortegnelse	2
Norges Riges Grundlov	5
A. Om Statsformen og Religionen.	5
§ 1.	5
§ 2.	5
B. Om den udøvende Magt, Kongen og den kongelige Familie.	5
§ 3.	5
§ 4.	5
§ 5.	5
§ 6.	5
§ 7.	6
§ 8.	6
§ 9.	6
§ 10.	6
§ 11.	6
§ 12.	7
§ 13.	7
§ 14.	7
§ 15.	7
§ 16.	8
§ 17. 1	8
§ 18.	8
§ 19.	8
§ 20.	8
§ 21. 1	9
§ 22. 1	9
§ 23.	9
§ 24.	9
§ 25.	10
§ 26.	10
§ 27.	10
§ 28.	10
§ 29.	11
§ 30.	11
§ 31.	11
§ 32.	11
§ 33.	11
§ 34.	11
§ 35.	12
§ 36.	12
§ 37.	12
§ 38.	12
§ 39.	12
§ 40.	12
§ 41.	12
§ 42.	13
§ 43.	13
§ 44.	13
§ 45.	13
§ 46.	13
§ 47.	13
§ 48.	13
C. Om Borgerret og den lovgivende Magt.	13
§ 49.	14
§ 50.	14
§ 51.	14
§ 52.	14
§ 53.	14
§ 54.	14
§ 55.	14
§ 56.	15
§ 57.	15
§ 58.	15
§ 59.	15
§ 60.	16
§ 61.	16
§ 62.	16
§ 63.	16
§ 64.	17
§ 65.	17
§ 66.	17
§ 67.	17
§ 68.	17
§ 69.	17
§ 70.	18
§ 71.	18
§ 72.	18
§ 73.	18
§ 74.	18
§ 75.	18
§ 76.	19
§ 77.	19
§ 78.	20
§ 79.	20
§ 80.	20
§ 81.	20
§ 82.	20
§ 83.	21
§ 84.	21
§ 85.	21
D. Om den dømmende Magt.	21
§ 86.	21
§ 87.	21
§ 88.	22
§ 89.	22
§ 90.	22
§ 91.	22
E. Almindelige Bestemmelser.	22
§ 92.	22
§ 93.	23
§ 94.	23
§ 95.	23
§ 96.	23
§ 97.	23
§ 98.	23
§ 99.	23
§ 100.	24
§ 101.	24
§ 102.	24
§ 103.	24
§ 104.	25
§ 105.	25
§ 106.	25
§ 107.	25
§ 108.	25
§ 109.	25
§ 110.	25
§ 110 a.	26
§ 110 b.	26
§ 110 c.	26
§ 111.	26
§ 112.	26


saaledes som den er lydende ifølge siden foretagne
Ændringer, senest Grundlovsbestemmelse af 30 Marts 2007 Nr. 364.


Norges Riges Grundlov


A. Om Statsformen og Religionen.

§ 1.
Kongeriget Norge er et frit, selvstændigt, udeleligt og uafhændeligt Rige.1 Dets Regjeringsform er indskrænket og arvelig monarkisk.

0
Beslutn. 18 nov 1905 jfr. beslutn. 7 juni 1905.

1
Jfr. lov 22 mai 1902 nr. 10 (strl.) §§ 83, 94, 98 og 104.


§ 2.
Alle Indvaanere af Riget have fri Religionsøvelse.
Den evangelisk-lutherske Religion forbliver Statens offentlige Religion.1 De Indvaanere, der bekjende sig til den, ere forpligtede til at opdrage deres Børn i samme.

0
Grlbest. 21. juli 1851, 3 aug 1897, 1 nov 1956, 4 mai 1964.

1
Se §§ 4, 12, 16 og 27, NL 2-1 og lover 17 des 1971 nr. 106, 12 juni 1981 nr. 64, 7 juni 1996 nr. 31, 17 juli 1998 nr. 61.



B. Om den udøvende Magt, Kongen og den kongelige Familie.

§ 3.
Den udøvende Magt er hos Kongen,1 eller hos Dronningen hvis hun har erhvervet Kronen efter Reglerne i § 6 eller § 7 eller § 48 i denne Grundlov. Naar den udøvende Magt saaledes er hos Dronningen, har hun alle de Rettigheder og Pligter som ifølge denne Grundlov og Landets Love indehaves af Kongen.

0
Grlbest. 13 juli 1990 nr. 550, 3 mars 2006 nr. 270.

1
Se § 12, § 27 til § 31, instr. 23 mars 1909, strl. §§ 99 og 104.


§ 4.
Kongen skal stedse bekjende sig til den evangelisk-lutherske Religion, haandhæve og beskytte denne.1

1
Se § 2 og § 16.


§ 5.
Kongens Person er hellig; han kan ikke lastes, eller anklages. Ansvarligheden paaligger hans Raad.1

1
Se § 12 og § 30, lov 22 mai 1902 nr. 10 (strl.) §§ 100, 101, 103 og 104, lov 5 feb 1932 nr. 1 kap. 1 og 2.


§ 6.
Arvefølgen er lineal, saaledes at kun i lovligt Ægteskab født Barn af Dronning eller Konge, eller af en som selv er arveberettiget, kan arve, og at den nærmere Linje gaar foran den fjernere og den ældre i Linjen foran den yngre.
Blandt Arveberettigede regnes ogsaa den Ufødte, der strax indtager sit tilbørlige Sted i Arvelinjen, naar hun eller han fødes til Verden.
Dog tilkommer Arveret ikke nogen som ikke er født i ret nedstigende Linje fra den sidst regjerende Dronning eller Konge eller dennes Søster eller Broder, eller selv er dennes Søster eller Broder.
Naar en til Norges Krone arveberettiget Prinsesse eller Prins fødes, skal hendes eller hans Navn og Fødselstid tilkjendegives førstholdende Storthing og antegnes i dets Protokol.
For dem som ere fødte tidligere end Aaret 1971, gjælder dog denne Grundlovs § 6 saaledes som den blev vedtagen den 18de November 1905. For dem som ere fødte tidligere end Aaret 1990 gjælder ligevel at Mand gaar foran Kvinde.

0
Beslutn. 18 nov 1905, grlbest. 13 juli 1990 nr. 550, 3 mars 2006 nr. 270.


§ 7.
Er ingen arveberettiget Prinsesse eller Prins til, kan Kongen foreslaa sin Efterfølger for Storthinget, der har Ret til at bestemme Valget, hvis Kongens Forslag ikke bifaldes.1

0
Beslutn. 18 nov 1905, grlbest. 13 juli 1990 nr. 550.

1
Jfr. § 48.


§ 8.
Kongens Myndighetsalder1 fastsættes ved Lov.2
Saasnart Kongen har opnaaet den lovbestemte Alder, erklærer han sig offentligen at være myndig.

0
Beslutn. 18 nov 1905.

1
Jfr. § 43 og § 47.

2
Jfr. lov 13 mai 1921 nr. 2.


§ 9.
Saasnart Kongen, som myndig, tiltræder Regjeringen, aflægger han for Storthinget følgende Ed: «Jeg lover og sværger, at ville regjere Kongeriget Norge i Overensstemmelse med dets Konstitution og Love; saasandt hjælpe mig Gud den Almægtige og Alvidende!»1
Er intet Storthing paa den Tid samlet, nedlægges Eden skriftlig i Statsraadet, og gjentages høitideligen af Kongen paa første Storthing.

0
Grlbest. 19 aug 1908.

1
Jfr. § 44.


§ 10.
(Opphevet ved beslutn. 14 mars 1908.)

§ 11.
Kongen skal bo inden Riget og maa ikke uden Storthingets Samtykke opholde sig udenfor Riget længere end sex Maaneder ad Gangen, medmindre han for sin Person vil have tabt Ret til Kronen.
Kongen maa ikke modtage nogen anden Krone eller Regjering uden Storthingets Samtykke, hvortil to Trediedele af Stemmerne udfordres.1

0
Beslutn. 18 nov 1905, grlbest. 19 aug 1908.

1
Jfr. § 36.


§ 12.
Kongen vælger selv et Raad af stemmeberettigede1 norske Borgere.2 Dette Raad skal bestaa af en Statsminister og i det mindste syv andre Medlemmer.3
Af Statsraadets Medlemmer skulle over det halve Antal bekjende sig til Statens offentlige Religion.4
Kongen fordeler Forretningerne iblandt Statsraadets Medlemmer saaledes, som han det for tjenligt eragter.5 Til at tage Sæde i Statsraadet kan Kongen ved overordentlige Leiligheder, foruden Statsraadets sædvanlige Medlemmer, tilkalde andre norske Borgere, kun ingen Medlemmer af Storthinget.
Ægtefæller,6 Forældre og Børn eller to Søskende maa ei paa samme Tid have Sæde i Statsraadet.7

0
Grlbest. 5 juni 1873, 30 juni 1891, beslutn. 18 nov 1905, grlbest. 28 april 1916, 24 mai 1919, 2 mai 1975, 3 mars 2006 nr. 270.

1
Jfr. § 50.

2
Se § 92. Jfr. lov 10 juni 2005 nr. 51.

3
Jfr. §§ 29, 35 og 62, lov 22 mai 1902 nr. 10 (strl.) §§ 99 og 104.

4
Se § 2.

5
Se instruks 23 mars 1909.

6
Se lover 4 juli 1991 nr. 47 og 30 april 1993 nr. 40.

7
Jfr. § 62.


§ 13.
Under Kongens Reiser inden Riget1 kan han overdrage Rigets Bestyrelse til Statsraadet. Dette skal føre Regjeringen i Kongens Navn og paa hans Vegne.2 Det skal ubrødelig efterleve, saavel denne Grundlovs Bestemmelser, som de særskilte dermed overensstemmende Forskrifter, som Kongen i Instruktion meddeler.3
Forretningerne afgjøres ved Stemmegivning, hvorved, i Tilfælde at Stemmerne ere lige, Statsministeren eller, i dennes Fraværelse, det første af de tilstedeværende Medlemmer af Statsraadet har tvende Stemmer.
Om de Sager, som Statsraadet saaledes afgjør, har det at give Indberetning til Kongen.

0
Grlbest. 5 juni 1873, 30 juni 1891, beslutn. 18 nov 1905, grlbest. 18 aug 1911.

1
Jfr. § 41.

2
Jfr. § 32.

3
Jfr. lov 5 feb 1932 nr. 1 § 11, instruks 23 mars 1909.


§ 14.
Kongen kan beskikke Statssekretærer til at bistaa Statsraadets Medlemmer under Udførelsen af deres Forretninger udenfor Statsraadet.1 Den enkelte Statssekretær handler paa Vegne af det Medlem af Statsraadet, til hvem han er knyttet, i den Udstrækning Vedkommende bestemmer.

0
Opphevet ved grlbest. 30 juni 1891, tilføyd ved grlbest. 1 juni 1976, endret ved grlbest. 3 mars 2006 nr. 270.

1
Jfr. § 22.


§ 15.
Enhver, som har Sæde i Statsraadet, er pligtig til at indlevere sin Ansøgning om Afsked, efter at Storthinget har fattet Beslutning om Mistillid til vedkommende Statsraad alene eller til det samlede Statsraad.
Kongen er forbunden at indvilge slig Ansøgning om Afsked.
Naar Storthinget har fattet Beslutning om Mistillid, kunne bare de Forretninger udføres, som ere nødvendige for en forsvarlig Embedsførsel.

0
Opphevet ved beslutn. 18 nov 1905, tilføyd ved grlbest. 30 mars 2007 nr. 364.


§ 16.
Kongen1 anordner al offentlig Kirke- og Gudstjeneste, alle Møder og Forsamlinger om Religionssager, og paaser, at Religionens offentlige Lærere følge de dem foreskrevne Normer.2

1
Se § 28.

2
Jfr. §§ 2 og 4, kirkeritual 25 juli 1685, lov 7 juni 1996 nr. 31.


§ 17. 1
Kongen2 kan give og ophæve Anordninger, der angaa Handel, Told, Næringsveie og Politi; dog maa de ikke stride mod Konstitutionen og de (saaledes som efterfølgende §§ 77, 78 og 79 bestemme) af Storthinget givne Love.3 De gjælde provisorisk til næste Storthing.

0
Endres ved grlbest. 30 mars 2007 nr. 365 (i kraft 1 okt 2009).

1
Jfr. lover 15 des 1950 nr. 7 kap. 1 og 2 og § 7, 4 des 1964 nr. 1.

2
Se § 28.

3
Jfr. lover 5 feb 1932 nr. 1 § 8 b, 15 des 1950 nr. 7 § 3 første ledd.


§ 18.
Kongen1 lader i Almindelighed indkræve de Skatter, og Afgifter, som Storthinget paalægger.2

0
Beslutn. 18 nov 1905.

1
Se § 28.

2
Jfr. § 75 a, lover 21 nov 1952 nr. 2, 17 juni 2005 nr. 67, 13 juni 1980 nr. 24.


§ 19.
Kongen1 vaager over, at Statens Eiendomme2 og Regalier3 anvendes og bestyres paa den af Storthinget bestemte og for Almenvæsenet nyttigste Maade.4

1
Se § 28.

2
Jfr. lover 13 juni 1997 nr. 44 (asl.) kap. 20 og 13 juni 1997 nr. 45 (asal.), kap. 20, 30 aug 1991 nr. 71.

3
Se lover 6 juni 1975 nr. 31, 21 des 2005 nr. 123.

4
Jfr. § 106 og lov 5 feb 1932 nr. 1 § 10.


§ 20.
Kongen1 har Ret til i Statsraadet2 at benaade Forbrydere, efterat Dom er falden. Forbryderen har Valget, om han vil modtage Kongens Naade, eller underkaste sig den ham tildømte Straf.3
I de Sager som af Storthinget foranstaltes anlagte for Rigsretten,4 kan ingen anden Benaadning, end Fritagelse for idømt Livsstraf,5 finde Sted, medmindre Storthinget har givet sit Samtykke dertil.

0
Grlbest. 29 nov 1862, 30 mars 2007 nr. 364.

1
Justisdepartementet har fullmakt til å avslå søknad etter res. 5 juni 1981 nr. 8703.

2
Se § 28.

3
Jfr. strpl. § 458.

4
Se § 86.

5
Jfr. Den europeiske menneskerettighetskonvensjonen protokoll nr. 6.


§ 21. 1
Kongen vælger og beskikker, efter at have hørt sit Statsraad,2 alle civile, geistlige og militære Embedsmænd.3 Disse skulle, før Beskikkelse finder Sted, sværge eller, hvis de ved Lov ere fritagne for Edsaflæggelse, høitideligen tilsige Konstitutionen og Kongen Lydighed og Troskab;4 dog kunne de Embedsmænd der ei ere norske Borgere, ved Lov fritages for denne Pligt. De kongelige Prinser maa ei beklæde civile Embeder.

0
Grlbest. 28 juni 1889, 30 juni 1891, beslutn. 18 nov 1905 og grlbest. 26 mars 1980.

1
Jfr. lov 4 mars 1983 nr. 3 § 3.

2
Se § 28.

3
Jfr. §§ 22 og 92, jfr. lov 4 mars 1983 nr. 3.

4
Jfr. lov 22 mai 1981 nr. 23.


§ 22. 1
Statsministeren og de øvrige Statsraadets Medlemmer samt Statssekretærene kunne, uden foregaaende Dom, afskediges af Kongen, efterat han derom har hørt Statsraadets Betænkning. Det samme gjælder for de Embedsmænd, som ere ansatte ved Statsraadets Kontorer eller ved Diplomatiet eller Konsulatvæsenet, civile og geistlige Overøvrigheds-Personer,2 Regimenters og andre militære Korpsers Chefer, Kommandanter i Fæstninger og Høistbefalende paa Krigsskibe. Hvorvidt Pension bør tilstaaes de saaledes afskedigede Embedsmænd, afgjøres af det næste Storthing. Imidlertid nyde de to Trediedele af deres forhen havte Gage.3
Andre Embedsmænd kunne ikkun suspenderes af Kongen, og skulle da strax tiltales for Domstolene, men de maa ei, uden efter Dom, afsættes, ei heller, mod deres Vilje, forflyttes.4
Alle Embedsmænd kunne, uden foregaaende Dom, afskediges, naar de have naaet en ved Lov fastsat Aldersgrænse.5 Det kan bestemmes ved Lov at visse Embedsmænd, der ei ere Dommere,6 kunne udnævnes paa Aaremaal.

0
Grlbest. 5 juni 1873, beslutn. 18 nov 1905, grlbest. 18 aug 1911, grlbest. 1 juni 1976, grlbest. 8 mai 1992 nr. 317.

1
Jfr. lov 4 mars 1983 nr. 3 § 3.

2
Se strpl. § 56.

3
Jfr. § 75 i.

4
Jfr. lov 22 mai 1902 nr. 10 (strl.) §§ 15, 29 nr. 1 og 30, milstrl. §§ 12 og 20, strl.ikrl. § 10, strpl. §§ 3 og 64, lov 4 mars 1983 nr. 3.

5
Jfr. lover 21 des 1956 nr. 1, 2 juli 2004 nr. 59 § 9. – Jfr. res. 17 juni 1966 om fullmakt for vedk. dept.

6
Jfr. dl. §§ 3, 10 og 19.


§ 23.
Kongen kan meddele Ordener til hvem han for godt befinder, til Belønning for udmærkede Fortjenester, der offentligen maa kundgjøres; men ei anden Rang og Titel, end den, ethvert Embede medfører. Ordenen fritager Ingen for Statsborgernes fælles Pligter og Byrder, ei heller medfører den fortrinlig Adgang til Statens Embeder. Embedsmænd, som i Naade afskediges, beholde deres havte Embeders Titel og Rang. Dette gjælder dog ikke Statsraadets Medlemmer eller Statssekretærerne.
Ingen personlige, eller blandede, arvelige Forrettigheder maa tilstaaes Nogen for Eftertiden.1

0
Grlbest. 21 mai 1920, grlbest. 1 juni 1976.

1
Jfr. §§ 101 og 108, lov 19 juni 1947 nr. 5.


§ 24.
Kongen vælger og afskediger, efter eget Godtbefindende, sin Hofstat1 og sine Hofbetjente.

1
Jfr. § 75 e.


§ 25.
Kongen har høieste Befaling over Rigets Land- og Sømagt.1 Den maa ikke forøges eller formindskes, uden Storthingets Samtykke. Den maa ikke overlades i fremmede Magters Tjeneste, og ingen fremmede Magters Krigsfolk, undtagen Hjælpetropper imod fiendtligt Overfald, maa inddrages i Riget uden Storthingets Samtykke.
Landeværnet og de øvrige Tropper, som ikke til Linjetropper kunne henregnes, maa aldrig, uden Storthingets Samtykke, bruges udenfor Rigets Grænser.2

0
Beslutn. 18 nov 1905, grlbest. 14 mars 1908 og 9 nov 1917.

1
Jfr. §§ 26, 28, 31 og 99.

2
Se lover 17 juli 1953 nr. 28 og nr. 29.


§ 26.
Kongen har Ret til at sammenkalde Tropper,1 begynde Krig til Landets Forsvar og slutte Fred, indgaa og ophæve Forbund,2 sende og modtage Gesandter.3
Traktater angaaende Sager af særlig Vigtighed og i alle Tilfælde Traktater hvis Iværksættelse efter Konstitutionen nødvendiggjør en ny Lov eller Storthingsbeslutning, blive først bindende, naar Storthinget har givet sit Samtykke dertil.4

0
Beslutn. 18 nov 1905, grlbest. 9 nov 1917, 10 april 1931, 3 mars 2006 nr. 270.

1
Jfr. § 25 annet ledd.

2
Jfr. § 75 g.

3
Lov 3 mai 2002 nr. 13.

4
Jfr. § 93.


§ 27.
Alle Statsraadets Medlemmer skulle, naar de ikke have lovligt Forfald, være nærværende i Statsraadet, og maa ingen Beslutning tages der, naar ikke over det halve Antal Medlemmer ere tilstede.1
Medlem af Statsraadet, der ikke bekjender sig til Statens offentlige Religion,2 deltager ikke i Behandlingen af Sager, som angaa Statskirken.3

0
Beslutn. 18 nov 1905, grlbest. 24 mai 1919.

1
Jfr. § 29.

2
Se § 2.

3
Jfr. lov 7 juni 1996 nr. 31.


§ 28.
Forestillinger om Embeders Besættelse og andre Sager af Vigtighed1 skulle foredrages i Statsraadet af det Medlem, til hvis Fag de høre, og Sagerne af ham expederes overensstemmende med den, i Statsraadet, fattede Beslutning.2 Dog kunne egentlige militære Kommando-Sager3 i saadan Udstrækning, som Kongen bestemmer, undtages fra Behandling i Statsraad.4

0
Grlbest. 24 mars 1911.

1
Jfr. §§ 16-22.

2
Se § 30 og Instruks 23 mars 1909 § 3 og § 4.

3
Jfr. § 30 og § 31.

4
Se Instruks 23 mars 1909 § 5 og § 4.


§ 29.
Forbyder lovligt Forfald en Statsraad at møde og foredrage de Sager som henhøre under hans Fag, skulle disse foredrages af en anden Statsraad, som Kongen dertil konstituerer.
Hindres saa mange ved lovligt Forfald fra at møde, at ikke flere end Halvparten af det bestemte Antal Medlemmer ere tilstede, skulle andre Mænd eller Kvinder i fornødent Antal konstitueres til at tage Sæde i Statsraadet.1

0
Beslutn. 18 nov 1905, grlbest. 10 mars 1922.

1
Jfr. § 12 og § 27.


§ 30.
I Statsraadet føres Protokol over alle de Sager, som der forhandles. De diplomatiske Sager, som i Statsraadet besluttes hemmeligholdte, indføres i en egen Protokol. Paa samme Maade forholdes med de militære Kommando-Sager, som i Statsraadet besluttes hemmeligholdte.1
Enhver, som har Sæde i Statsraadet, er pligtig til med Frimodighed at sige sin Mening, hvilken Kongen er forbunden at høre. Men det er denne forbeholdt at fatte Beslutning efter sit eget Omdømme.2
Finder noget Medlem af Statsraadet, at Kongens Beslutning er stridende mot Statsformen eller Rigets Love, er det Pligt at gjøre kraftige Forestillinger derimod samt at tilføie sin Mening i Protokollen. Den der ikke saaledes har protesteret, ansees at have været enig med Kongen, og er ansvarlig derfor, saaledes som siden bestemmes, og kan af Storthinget sættes under Tiltale for Rigsretten.3

0
Grlbest. 24 mars 1911, 30 mars 2007 nr. 364.

1
Jfr. § 75 f og g, instruks 23 mars 1909.

2
Jfr. § 5.

3
Jfr. § 86 og lov 5 feb 1932 nr. 1 § 11 første ledd.


§ 31.
Alle af Kongen udfærdigede Beslutninger skulle, for at blive gyldige, kontrasigneres. I militære Kommando-Sager kontrasigneres Beslutningerne af den, som har foredraget Sagerne, men ellers af Statsministeren eller, om han ikke har været tilstede, af det første af Statsraadets tilstedeværende Medlemmer.1

0
Grlbest. 5 juni 1873, beslutn. 18 nov 1905, grlbest. 15 aug 1911.

1
Jfr. § 28 og § 75.


§ 32.
De Beslutninger, som tages af Regjeringen under Kongens Fraværelse, udfærdiges i Kongens Navn og undertegnes af Statsraadet.1

0
Grlbest. 5 juni 1873, 30 juni 1891, beslutn. 18 nov 1905.

1
Jfr. § 13.


§ 33.
(Opphevet ved beslutn. 12 aug (24 okt) 1908.)

§ 34.
Kongen giver Bestemmelser om Titler for dem som til Kronen ere arveberettigede.

0
Grlbest. 13 juli 1990 nr. 550.


§ 35.
Saasnart Tronarvingen har fyldt sit 18de Aar, er hun eller han berettiget til at tage Sæde i Statsraadet,1 dog uden Stemme eller Ansvar.

0
Grlbest. 13 juli 1990 nr. 550.

1
Se § 12.


§ 36.
En til Norges Krone arveberettiget Prinsesse eller Prins maa ei gifte sig uden Kongens Tilladelse. Ei heller maa hun eller han modtage nogen anden Krone eller Regjering uden Kongens og Storthingets Samtykke; til Storthingets Samtykke udfordres to Trediedele af Stemmerne.1
Handler hun eller han herimod, taber Vedkommende saavel som Efterkommerne Retten til Norges Trone.

0
Grlbest. 19 aug 1908 og 13 juli 1990 nr. 550.

1
Jfr. § 11.


§ 37.
De kongelige Prinser og Prinsesser skulle, for deres Personer, ikke svare for Andre end Kongen, eller hvem han, til Dommer over dem, forordner.

§ 38.
(Opphevet ved beslutn. 18 nov 1905.)

§ 39.
Dør Kongen og Tronfølgeren endnu er umyndig,1 skal Statsraadet strax udstede Indkaldelse af Storthinget.2

0
Beslutn. 18 nov 1905.

1
Jfr. lov 13 mai 1921 nr. 2.

2
Jfr. lov 5 feb 1932 nr. 1 § 11 annet ledd.


§ 40.
Indtil Storthinget er forsamlet og har anordnet Regjeringen under Kongens Mindreaarighed, forestaar Statsraadet Rigets Bestyrelse,1 med Iagttagelse af Grundloven.

0
Beslutn. 18 nov 1905.

1
Jfr. § 48, lov 22 mai 1902 nr. 10 (strl.) §§ 99 og 104.


§ 41.
Er Kongen fraværende fra Riget uden at være i Feldt, eller er han saa syg, at han ikke kan varetage Regjeringen, skal den til Tronen nærmest Arveberettigede, saafremt han har opnaaet den for Kongen fastsatte Myndighedsalder,1 forestaa Regjeringen som Kongemagtens midlertidige Udøver.2 I modsat Fald forestaar Statsraadet Rigets Bestyrelse.3

0
Grlbest. 10 jan 1863, beslutn. 18 nov 1905, grlbest. 13 juli 1990 nr. 550, 3 mars 2006 nr. 270.

1
Jfr. lov 13 mai 1921 nr. 2.

2
Se § 44.

3
Sml. § 13.


§ 42.
(Opphevet ved beslutn. 18 nov 1905.)

§ 43.
Valget af Formyndere, som skulle bestyre Regjeringen for den umyndige Konge,1 skal foretages af Storthinget.2

0
Beslutn. 18 nov 1905.

1
Jfr. § 8.

2
Jfr. § 47.


§ 44.
Den Prinsesse eller Prins, som i de udi § 41 anførte Tilfælde forestaar Regjeringen, skal for Storthinget skriftlig aflægge følgende Ed: «Jeg lover og sværger at ville forestaa Regjeringen i Overensstemmelse med Konstitutionen og Lovene, saa sandt hjælpe mig Gud den Almægtige og Alvidende!».1
Holdes ei Storthinget paa den Tid, nedlægges Eden i Statsraadet, og tilstilles siden næste Storthing.
Den Prinsesse eller Prins, som een Gang har aflagt Eden, gjentager den ikke senere.

0
Beslutn. 18 nov 1905, grlbest. 19 aug 1908, 8 april 1910 og 13 juli 1990 nr. 550.

1
Jfr. § 9.


§ 45.
Saasnart deres Statsstyrelse ophører, skulle de aflægge Kongen og Storthinget Regnskab for samme.

§ 46.
Efterlade Vedkommende, i Overensstemmelse med § 39, strax at sammenkalde Storthinget, da paaligger det Høiesteret, som en ubetinget Pligt, saasnart fire Uger ere forløbne, at foranstalte denne Sammenkaldelse.1

0
Beslutn. 18 nov 1905.

1
Jfr. lov 5 feb 1932 nr. 1 § 16.


§ 47.
Bestyrelsen af den umyndige Konges Opdragelse bør, hvis begge Forældrene ere døde, og ingen af dem derom har efterladt nogen skriftlig Bestemmelse, fastsættes af Storthinget.

0
Beslutn. 18 nov 1905, grlbest. 11 juni 1951 og 13 juli 1990 nr. 550.


§ 48.
Er Kongestammen uddød, og ingen Tronfølger udkaaret, da skal en ny Dronning eller Konge vælges af Storthinget.1 Imidlertid forholdes med den udøvende Magt efter 40de §.

0
Beslutn. 18 nov 1905, grlbest. 13 juli 1990 nr. 550.

1
Jfr. § 7.



C. Om Borgerret og den lovgivende Magt.

§ 49.
Folket udøver den lovgivende Magt ved Storthinget,1 der bestaar af to Afdelinger, et Lagthing og et Odelsthing.2

0
Endres ved grlbest. 30 mars 2007 nr. 365 (i kraft 1 okt 2009).

1
Jfr. §§ 75 a, 76-79 og 81, lov 22 mai 1902 nr. 10 (strl.) §§ 99 og 104.

2
Se §§ 67 og 73.


§ 50.
Stemmeberettigede ved Storthingsvalg ere de norske Borgere,1 Mænd og Kvinder, som senest i det Aar, Valgthinget holdes, have fyldt 18 Aar.
I hvilken Udstrækning dog norske Borgere, som paa Valgdagen ere bosatte udenfor Riget men opfylde foranstaaende Betingelser, ere stemmeberettigede, fastsættes ved Lov.2
Regler om Stemmeret for ellers stemmeberettigede Personer som paa Valgdagen aabenbart lide af alvorlig sjælelig Svækkelse eller nedsat Bevidsthed, kunne fastsættes ved Lov.

0
Grlbest. 31 mars 1821 (lov 2 juni 1821), 4 juli 1884, 30 april 1898, 1 juli 1907, 7 juli 1913, 6 nov 1920, 29 mai 1928, 13 juni 1946, 24 nov 1967, 30 mai 1972, 23 nov 1978, 17 jan 1980, 27 juni 2003 nr. 765, 3 mars 2006 nr. 270.

1
Jfr. lov 10 juni 2005 nr. 51.

2
Jfr. lov 28 juni 2002 nr. 57.


§ 51.
Regler om Mandtalsførselen og om de Stemmeberettigedes Indførsel i Mandtallet fastsættes ved lov.1

0
Grlbest. 28 juni 1889 og 16 des 1899.

1
Se lov 28 juni 2002 nr. 57 kap. 2.


§ 52.
(Opphevet ved grlbest. 26 okt 1954.)

§ 53.
Stemmeret tabes:
a.
ved Domfældelse for strafbare Handlinger overensstemmende med, hvad derom i Lov bestemmes;1

b.
ved at gaa i fremmed Magts Tjeneste uden Regjeringens2 Samtykke;


0
Punkt c. opphevet ved grlbest. 23 april 1959, punkt e. opphevet ved grlbest. 17 jan 1980, punkt d. opphevet ved grlbest. 27 juni 2003 nr. 766.

1
Jfr. lov 22 mai 1902 nr. 10 (strl.) §§ 16, 31, 32, strl.ikrl. § 9, milstrl. §§ 12, 20.

2
Jfr. res. 3 okt 1947.


§ 54.
Valgthingene holdes hvert fjerde Aar.1 De skulle være tilendebragte inden September Maaneds Udgang.2

0
Grlbest. 13 aug 1857, 24 april 1869, 11 juni 1898, 25 mai 1905, 8 juni 1907, 22 april 1938, 10 feb 1959.

1
Jfr. § 71. Se Den europeiske menneskerettighetskonvensjon protokoll nr. 1 (inntatt ved lov 21 mai 1999 nr. 30) art. 3.

2
Jfr. lov 28 juni 2002 nr. 57 § 9-1 og § 9-2.


§ 55.
Valgthingene bestyres paa den Maade, som ved Lov fastsættes.1 Stridigheder om Stemmeret afgjøres af Valgstyret, hvis Kjendelse kan indankes for Storthinget.2

0
Grlbest. 16 des 1899 og 25 mai 1905.

1
Jfr. lov 28 juni 2002 nr. 57 kap. 9.

2
Jfr. § 64.


§ 56.
(Opphevet ved grlbest. 23 mars 1972.)

§ 57.
Det Antal Storthingsrepræsentanter, som bliver at vælge, bestemmes til 169.
Riget inddeles i 19 Valgdistrikter.
150 af Storthingsrepræsentanterne blive at vælge som Distriktsrepræsentanter og de øvrige 19 som Udjævningsrepræsentanter.
Ethvert Valgdistrikt skal have 1 Udjævningsmandat.
Det Antal Storthingsrepræsentanter, som bliver at vælge fra hvert Valgdistrikt, bestemmes paa Grundlag af en Beregning af Forholdet mellem hvert Distrikts Antal Indvaanere samt Areal, og det hele Riges Antal Indvaanere samt Areal, naar hver Indvaaner giver 1 Point og hver Kvadratkilometer giver 1,8 Point. Beregningen bliver at foretage hvert ottende Aar.
Nærmere Bestemmelser om Rigets Inddeling i Valgdistrikter og Storthingsmandaternes Fordeling paa Valgdistrikterne fastsættes ved Lov.1

0
Grlbest. 25 mai 1905, 13 mars 1907, 6 juli 1917, 5 des 1919, 23 nov 1923, 26 nov 1952, 30 mai 1972, 27 juli 1984 nr. 1479, 10 juni 1988 nr. 455 og 27 juni 2003 nr. 767.

1
Jfr. lov 28 juni 2002 nr. 57 kap. 11.


§ 58.
Valgthingene afholdes særskilt for hver Kommune. Paa Valgthingene stemmes der direkte paa Storthingsrepræsentanter med Varamænd for det hele Valgdistrikt.1

0
Grlbest. 26 nov 1859, 26 mai 1866, 6 juni 1878, 1 juli 1884, 22 nov 1902, 25 mai 1905, 6 juli 1917, 5 des 1919, 23 nov 1923, 26 nov 1952, 30 mai 1972, 27 juli 1984 nr. 1479, 10 juni 1988 nr. 455 og 27 juni 2003 nr. 768.

1
Se lov 28 juni 2002 nr. 57 § 11-1.


§ 59.
Valget af Distriktsrepræsentanter foregaar som Forholdstalsvalg, og Mandaterne fordeles mellem Partierne efter nedenstaaende Regler.
De sammenlagte Stemmetal for hvert Parti inden de enkelte Valgdistrikter blive at dele med 1,4; 3; 5 og 7 og saaledes videre indtil Stemmetalet er delt saa mange Gange som det Antal Mandater vedkommende Parti kan forventes at faa. Det Parti, der efter det Foranstaaende faar den største Kvotient, tildeles det første Mandat, medens det næste Mandat tilfalder det Parti, der har den næst største Kvotient, og saaledes videre, indtil alle Mandater ere fordelede.
Listeforbund er ikke tilladt.
Udjævningsmandaterne fordeles mellem de i Udjævning deltagende Partier paa Grundlag af Forholdet mellem de sammenlagte Stemmetal for de enkelte Partier i det hele Rige i det Øiemed at opnaa størst mulig Forholdsmessighed Partierne imellem. Ved en tilsvarende Anvendelse for det hele Rige og for de i Udjævningen deltagende Partier af Reglerne om Fordelingen af Distriktsmandaterne angives, hvor mange Storthingsmandater hvert Parti ialt skal have. Partierne faar sig derefter tildelt saa mange Udjævningsmandater, at de tilsammen med de allerede tildelede Distriktsmandater udgjøre et saa stort Antal Storthingsmandater som vedkommende Parti efter den foranstaaende Angivelse skal have. Har et Parti allerede ved Fordelingen af Distriktsmandaterne faaet et større Antal Mandater, end hvad det efter foranstaaende Angivelse skal have, skal der foretages ny Fordeling af Udjævningsmandaterne udelukkende mellem de øvrige Partier, saaledes at der bortsees fra det Stemmetal og de Distriktsmandater, som det først nævnte Parti har opnaaet.
Intet Parti kan tildeles noget Udjævningsmandat medmindre det har faaet mindst 4 Procent af det samlede Stemmetal for det hele Rige.
Nærmere Bestemmelser om Fordelingen af Partiernes Udjævningsmandater paa Valgdistrikterne fastsættes ved Lov.1

0
Lov 8 feb 1816, res. 1 sep 1830, grlbest. 9 mai 1842, 25 mai 1905, 12 april 1907, 13 juli 1917, 5 des 1919, 23 nov 1923, 30 mai 1972, 10 juni 1988 nr. 455 og 27 juni 2003 nr. 769.

1
Jfr. lov 28 juni 2002 nr. 57 § 11-6.


§ 60.
Hvorvidt og under hvilke Former de Stemmeberettigede kunne afgive deres Stemmesedler uden personligt Fremmøde paa Valgthingene bestemmes ved Lov.1

0
Grlbest. 20 juni 1896, 25 mai 1905, 23 mars 1929, 3 mars 2006 nr. 270.

1
Jfr. lov 28 juni 2002 nr. 57 kap. 8.


§ 61.
Ingen kan vælges til Repræsentant uden at være Stemmeberettiget.1

0
Grlbest. 25 mai 1905, 7 juli 1913, 6 feb 1948, 26 nov 1952, 24 nov 1967 og 27 juni 2003 nr. 770.

1
Jfr. lov 28 juni 2002 nr. 57 § 3-1.


§ 62.
De Tjenestemænd, der ere ansatte ved Statsraadets Kontorer, Statssekretærerne og de politiske Raadgivere dog undtagne, kunne ikke vælges til Repræsentanter. Det samme gjælder Høiesterets Medlemmer, og Tjenestemænd, der ere ansatte ved Diplomatiet eller Konsulatvæsenet.1
Statsraadets Medlemmer2 kunne ikke møde paa Storthinget som Repræsentanter, saalænge de have Sæde i Statsraadet. Ei heller kunne Statssekretærerne3 møde som Repræsentanter, saalænge de beklæde deres Embeder, og de politiske Raadgivere ved Statsraadets Kontorer kunne ikke møde paa Storthinget, saalænge de indehave deres Stillinger.

0
Grlbest. 7 juli 1913, 29 mai 1928, 1 juni 1976 og 27 juni 2003 nr. 771.

1
Jfr. lov 3 mai 2002 nr. 13.

2
Se §§ 12 og 29.

3
Jfr. § 14.


§ 63.
Enhver, som vælges til Repræsentant, er pligtig1 til at modtage Valget, medmindre:
a.
Han er valgt udenfor det Valgdistrikt, indenfor hvilket han er stemmeberettiget.

b.
Han har mødt som Repræsentant paa alle Storthing efter forrige Valg.2

d.
Han er Medlem af et politisk Parti, og han er valgt paa en Valgliste der ikke udgaar fra dette Parti.

Regler for inden hvilken Tid og paa hvilken Maade den som har Ret til at negte Valg, skal gjøre denne Ret gjældende, fastsættes ved Lov.1
Det skal ligeledes ved Lov bestemmes,3 inden hvilken Tid og paa hvilken Maade En, som vælges til Repræsentant for to eller flere Valgdistrikter, skal afgive Erklæring om, hvilket Valg han vil modtage.

0
Grlbest. 24 april 1869, 1 juli 1884, 25 mai 1905, 5 des 1919, 15 juli 1938, 26 nov 1952, 27 juli 1984 nr. 1479, 13 juli 1990 nr. 550, 8 mai 1992 nr. 317, 27 juni 2003 nr. 772 (punkt c. opphevet), 3 mars 2006 nr. 270.

1
Jfr. lov 5 feb 1932 nr. 1 § 12.

2
Se § 71.

3
Jfr. lov 28 juni 2002 nr. 57 § 11-9.


§ 64.
De valgte Repræsentanter forsynes med Fuldmagter,1 hvis Lovlighed bedømmes af Storthinget.2

0
Grlbest. 25 mai 1905.

1
Jfr. lov 28 juni 2002 nr. 57 § 11-8.

2
Jfr. § 55, lov 28 juni 2002 nr. 57 kap. 13.


§ 65.
Enhver Repræsentant og indkaldt Varamand erholder af Statskassen Godtgjørelse bestemt ved Lov1 for Reiseomkostninger til og fra Storthinget og fra Storthinget til sit Hjem og tilbage igjen under Ferier af mindst 14 Dages Varighed.
Desuden tilkommer han Godtgjørelse ligeledes bestemt ved Lov1 for Deltagelse i Storthinget.

0
Grlbest. 8 april 1910, 5 des 1919, 26 okt 1923 og 13 juni 1986 nr. 1279.

1
Jfr. lov 30 juni 1954 nr. 11.


§ 66.
Repræsentanterne ere paa deres Reise til og fra Storthinget, samt under deres Ophold der, befriede fra personlig Heftelse,1 medmindre de gribes i offentlige Forbrydelser, ei heller kunne de udenfor Storthingets Forsamlinger drages til Ansvar for deres der ytrede Meninger. Efter den der vedtagne Orden er Enhver pligtig at rette sig.2

1
Jfr. tvangsl. § 14-17.

2
Jfr. lov 5 feb 1932 nr. 1 § 12.


§ 67.
De paa forestaaende Maade valgte Repræsentanter udgjøre Kongeriget Norges Storthing.

§ 68.
Storthinget sammentræder i Almindelighed den første Søgnedag i Oktober Maaned hvert Aar i Rigets Hovedstad, medmindre Kongen paa Grund af overordentlige Omstændigheder, saasom fiendtligt Indfald eller smitsom Syge, dertil bestemmer en anden Kjøbstad i Riget. Saadan Bestemmelse maa da betimelig bekjendtgjøres.

0
Grlbest. 13 aug 1857, 24 april 1869, 11 juni 1898, 8 juni 1907, 10 feb 1959, 3 mars 2006 nr. 270.


§ 69.
Naar Storthinget ikke er samlet, kan det sammenkaldes af Kongen dersom han finder det fornødent.

0
Grlbest. 24 april 1869, 28 april 1916 og 13 juli 1990 nr. 550.


§ 70.
(Opphevet ved grlbest. 13 juli 1990 nr. 550.)

§ 71.
Storthingets Medlemmer fungere som saadanne i fire paa hinanden følgende Aar.1

0
Grlbest. 24 april 1869, 22 april 1938 og 13 juli 1990 nr. 550.

1
Jfr. § 54 og § 68.


§ 72.
(Opphevet ved grlbest. 13 juli 1990 nr. 550.)

§ 73.
Storthinget udvælger blandt sine Medlemmer en Fjerdepart, som udgjør Lagthinget; de øvrige tre Fjerdeparter danne Odelsthinget.1 Udvalget sker paa første Storthing, der sammentræder efter nyt Valg, hvorefter Lagthinget forbliver uforandret paa alle efter samme Valg sammensatte Storthing, uden forsaavidt Afgang, der maatte indtræffe blandt dets Medlemmer, ved særskilt Udvalg bliver at erstatte.
Hvert Thing holder sine Forsamlinger særskilt og udnævner sin egen Præsident og Sekretær. Intet af Thingene kan holdes, medmindre mindst Halvdelen af dets Medlemmer ere tilstede. Dog kan ikke Grundlovsforslag behandles, medmindre mindst to Trediedele af Storthingets Medlemmer ere tilstede.

0
Grlbest. 24 april 1869, 30 april 1926, 5 juni 1931 og 13 juli 1990 nr. 550. Endres ved grlbest. 30 mars 2007 nr. 365 (i kraft 1 okt 2009).

1
Jfr. §§ 76-79.


§ 74.
Saasnart Storthinget har konstitueret sig, aabner Kongen eller den, han dertil beskikker, dets Forhandlinger med en Tale, hvori han underretter det om Rigets Tilstand og de Gjenstande, hvorpaa han især ønsker at henlede Storthingets Opmærksomhed. Ingen Deliberation maa finde Sted i Kongens Nærværelse.
Naar Storthingets Forhandlinger ere aabnede, have Statsministeren og Statsraaderne Ret til at møde i Storthinget samt i begge dets Afdelinger og lige med sammes Medlemmer,1 dog uden at afgive Stemme, at deltage i de forefaldende Forhandlinger, forsaavidt disse holdes for aabne Døre, men i de Sager, som forhandles for lukkede Døre,2 kun forsaavidt det af vedkommende Thing maatte tilstedes.

0
Grlbest. 24 april 1869, 1 juli 1884, beslutn. 18 nov 1905. Endres ved grlbest. 30 mars 2007 nr. 365 (i kraft 1 okt 2009).

1
Jfr. § 66.

2
Se § 84.


§ 75.
Det tilkommer Storthinget:1
a.
at give og ophæve Love;2 at paalægge Skatter,3 Afgifter, Told og andre offentlige Byrder, som dog ikke gjælde udover 31te December i det næst paafølgende Aar, medmindre de af et nyt Storthing udtrykkelig fornyes;

b.
at aabne Laan paa Rigets Kredit;

c.
at føre Opsyn over Rigets Pengevæsen;4

d.
at bevilge de til Statsudgifterne fornødne Pengesummer;

e.
at bestemme, hvor meget aarlig skal udbetales Kongen til hans Hofstat,5 og at fastsætte den kongelige Families Apanage, som dog ikke maa bestaa i faste Eiendomme;

f.
at lade sig forelægge Statsraadets Protokoller6 og alle offentlige Indberetninger og Papirer;

g.
at lade sig meddele de Forbund og Traktater, som Kongen paa Statens Vegne har indgaaet med fremmede Magter;7

h.
at kunne fordre Enhver til at møde for sig i Statssager,8 Kongen og den kongelige Familie undtagen; dog gjælder denne Undtagelse ikke for de kongelige Prinser, forsaavidt de maatte beklæde Embeder;

i.
at revidere midlertidige Gage- og Pensionslister og deri gjøre de Forandringer, det finder fornødne;9

k.
at udnævne fem Revisorer, der aarligen skulle gjennemse Statens Regnskaber og bekjendtgjøre Extrakter af samme ved Trykken, hvilke Regnskaber derfor skulle tilstilles disse Revisorer inden sex Maaneder efter Udgangen af det Aar, for hvilket Storthingets Bevilgninger ere givne, samt at træffe Bestemmelser angaaende Ordningen af Decisionsmyndigheden overfor Statens Regnskabsbetjente;10

l.
at udnævne en Person, der ikke er Medlem af Storthinget, til, paa en Maade som er nærmere bestemt i Lov,11 at have Indseende med den offentlige Forvaltning og alle som virke i dens Tjeneste, for at søge at sikre at der ikke øves Uret mod den enkelte Borger;

m.
at naturalisere Fremmede.12


0
Grlbest. 13 aug 1857, 24 april 1869, 22 juni 1880, 30 juni 1891, 11 juni 1898, beslutn. 18 nov 1905, grlbest. 8 juni 1907, 24 mars 1911, 28 april 1916, 14 des 1917, 10 feb 1959, 9 feb 1967, 13 juli 1990 nr. 550, 23 juni 1995 nr. 567, 3 mars 2006 nr. 270.

1
Jfr. lov 5 feb 1932 nr. 1 § 8, jfr. også § 7, § 19, § 25, § 48, § 86.

2
Jfr. §§ 49 og 76-79.

3
Jfr. § 18.

4
Jfr. lov 24 mai 1985 nr. 28.

5
Jfr. § 24.

6
Jfr. § 30. Se instruks 23 mars 1909 § 4 nr. 3 flg. og § 7 nr. 2 a.

7
Jfr. § 26.

8
Jfr. lov 3 aug 1897 nr. 2.

9
Jfr. § 22.

10
Jfr. lov 7 mai 2004 nr. 21 og lov 5 feb 1932 nr. 1 § 8 c. Sml. lov 19 juni 1931 nr. 18 § 14.

11
Jfr. lov 22 juni 1962 nr. 8.

12
Jfr. § 92 d.


§ 76.
Enhver Lov1 skal først foreslaaes paa Odelsthinget, enten af dets egne Medlemmer, eller af Regjeringen ved en Statsraad.2
Er Forslaget der antaget, sendes det til Lagthinget, som enten bifalder eller forkaster det, og, i sidste Tilfælde, sender det tilbage med tilføiede Anmærkninger. Disse tages i Overveielse af Odelsthinget, som enten henlægger Lovforslaget, eller atter sender det til Lagthinget med eller uden Forandring.
Naar et Forslag fra Odelsthinget to Gange har været Lagthinget forelagt, og anden Gang derifra er blevet tilbagesendt med Afslag, træder hele Storthinget sammen, og med to Trediedele af dets Stemmer afgjøres da Forslaget.
Imellem enhver saadan Deliberation maa, i det mindste, tre Dage hengaa.

0
Endres ved grlbest. 30 mars 2007 nr. 365 (i kraft 1 okt 2009).

1
Jfr. §§ 49, 73 og 75 a.

2
Jfr. § 28.


§ 77.
Naar en af Odelsthinget foreslaaet Lovbeslutning er bifaldt af Lagthinget eller af det samlede Storthing, sendes den til Kongen med Anmodning om at erholde hans Sanktion.1

0
Grlbest. 30 juni 1891, 6 juli 1891, beslutn. 18 nov 1905 og grlbest. 7 juli 1913.

0
Endres ved grlbest. 30 mars 2007 nr. 365 (i kraft 1 okt 2009).

1
Jfr. lov 5 feb 1932 nr. 1 § 8.


§ 78.
Billiger Kongen Lovbeslutningen, forsyner han den med sin Underskrift, hvorved den vorder Lov.1
Billiger han den ikke, sender han den tilbage til Odelsthinget med den Erklæring, at han ikke for Tiden finder det tjenligt at sanktionere den.2 Beslutningen maa i dette Tilfælde ikke mere af det da samlede Storthing forelægges Kongen.

0
Grlbest. 24 april 1869 og 7 juli 1913. Endres ved grlbest. 30 mars 2007 nr. 365 (i kraft 1 okt 2009).

1
Jfr. § 81, lov 19 juni 1969 nr. 53 § 1.

2
Jfr. § 80.


§ 79.
Er en Lovbeslutning bleven uforandret antagen af to Storthing, sammensatte efter to forskjellige paa hinanden følgende Valg og indbyrdes adskilte ved mindst to mellemliggende Storthing, uden at afvigende Lovbeslutning i Mellemtiden fra den første til den sidste Antagelse af noget Storthing er bleven fattet, og den da forelægges Kongen, med Begjæring, at Hans Majestæt ikke vil negte en Lovbeslutning sin Sanktion, som Storthinget efter det modneste Overlæg anser for gavnlig, saa vorder den Lov, om end Kongens Sanktion ikke paafølger inden Storthinget adskilles.1

0
Grlbest. 24 april 1869, 7 juli 1913, 22 april 1938 og 13 juli 1990 nr. 550.

1
Jfr. § 81.


§ 80.
Storthinget forbliver samlet saalænge det finder det fornødent og indstiller Forhandlingerne naar det har tilendebragt sine Forretninger.
I Overensstemmelse med Regler i den af Storthinget vedtagne Orden, kan Forhandlingerne gjenoptages, men de ophøre senest sidste Søgnedag i September Maaned.
Inden denne Tid meddeler Kongen sin Resolution paa de ikke allerede forinden afgjorte Lovbeslutninger (jfr. §§ 77-79), ved enten at stadfæste eller forkaste dem.1 Alle de, som han ikke udtrykkeligen antager, ansees som af ham forkastede.

0
Grlbest. 24 april 1869, 12 mars 1908, 7 juli 1913 og 13 juli 1990 nr. 550.

1
Jfr. § 78.


§ 81.
Alle Love (de i § 79 undtagne) udfærdiges1 i Kongens Navn, under Norges Riges Segl, og i følgende Udtryk: «Vi N.N. gjøre vitterligt: at Os er bleven forelagt Storthingets Beslutning, af Dato saalydende: (her følger Beslutningen). Thi have Vi antaget og bekræftet, ligesom Vi herved antage og bekræfte samme som Lov, under Vor Haand og Rigets Segl.»

0
Grlbest. 27 juni 1908.

1
Jfr. lov 19 juni 1969 nr. 53 § 1.


§ 82.
Regjeringen skal meddele Storthinget alle de Oplysninger, der ere nødvendige for Behandlingen af de Sager, den fremlægger. Intet Medlem af Statsraadet maa fremlægge urigtige eller vildledende Oplysninger for Storthinget eller dets Organer.

0
Opphevet ved grlbest. 7 juli 1913, tilføyd ved grlbest. 30 mars 2007 nr. 364.


§ 83.
Storthinget kan indhente Høiesterets Betænkning over juridiske Gjenstande.1

1
Jfr. § 88, lov 5 feb 1932 nr. 1 § 17.


§ 84.
Storthinget holdes for aabne Døre, og dets Forhandlinger kundgjøres ved Trykken, undtagen i de Tilfælde, hvor det modsatte besluttes ved Stemmeflerhed.

§ 85.
Den der adlyder en Befaling, hvis Hensigt er at forstyrre Storthingets Frihed og Sikkerhed, gjør sig derved skyldig i Forræderi mod Fædrenelandet.1

1
Jfr. lov 22 mai 1902 nr. 10 (strl.) §§ 99 og 104, milstrl. § 24.



D. Om den dømmende Magt.

§ 86.
Rigsretten dømmer i første og sidste Instans1 i de Sager, som Storthinget anlægger mod Statsraadets, Høiesterets eller Storthingets Medlemmer for strafbart eller andet retstridigt Forhold, naar de have brudt deres konstitutionelle Pligter.2
De nærmere Regler om Storthingets Paatale efter denne Paragraf fastsættes ved Lov.3 Dog kan der ikke sættes kortere Forældelsesfrist end 15 Aar for Adgangen til at gjøre Ansvar gjældende ved Tiltale for Rigsretten.4
Dommere i Rigsretten ere 6 Medlemmer5 valgte af Storthinget og de 5 efter Embedsalder ældste, fast udnævnte Medlemmer af Høiesteret,6 deriblandt Høiesterets Formand. Storthinget vælger Medlemmerne og Stedfortrædere for 6 Aar. Et Medlem af Statsraadet eller Storthinget kan ikke vælges til Medlem af Rigsretten. I Rigsretten har Høiesterets Formand Forsædet.7
Den der har taget Sæde i Rigsretten som valgt af Storthinget, udtræder ikke af Retten, om den Tid, for hvilken han er valgt, udløber før Rigsrettens Behandling af Sagen er tilendebragt. Heller ikke en Høiesteretsdommer, som er Medlem af Rigsretten, udtræder af Retten, selvom han fratræder som Medlem af Høiesteret.

0
Grlbest. 19 aug 1908, 25 feb 1911 og 29 jan 1932, 30 mars 2007 nr. 364.

1
Jfr. strl. § 99 og § 104.

2
Se §§ 20 annet ledd, 30 og 66, lov 5 feb 1932 nr. 1.

3
Jfr. lov 5 feb 1932 nr. 2.

4
Jfr. lov 5 feb 1932 nr. 1 § 5.

5
Se § 73.

6
Jfr. dl. § 3, første ledd.

7
Jfr. lov 5 feb 1932 nr. 2 § 4.


§ 87.
De nærmere Forskrifter om Sammensætningen af Rigsretten og Sagsbehandlingen fastsættes ved Lov.1

0
Grlbest. 29 jan 1932, 3 mars 2006 nr. 270, 30 mars 2007 nr. 364.

1
Se lov 5 feb 1932 nr. 2.


§ 88.
Høiesteret1 dømmer i sidste Instans.2 Dog kunne Indskrænkninger i Adgangen til at erholde Høiesterets Afgjørelse bestemmes ved Lov.3
Høiesteret skal bestaa af en Formand og mindst fire andre Medlemmer.4

0
Grlbest. 29 nov 1862, 25 feb 1911 og 24 juni 1938.

1
Jfr. §§ 46 og 83, strl. §§ 99 og 104, lov 5 feb 1932 nr. 1 § 17.

2
Jfr. § 90. Se lov 25 juni 1926 nr. 2.

3
Jfr. strpl. § 306, § 323 og § 388, tvml. § 357, § 373 og § 404.

4
Jfr. dl. § 3.


§ 89.
(Ophevet ved grlbest. 17 des 1920; jfr. grlbest. 7 juli 1913.)

§ 90.
Høiesterets Domme kunne i intet Tilfælde paaankes.1

0
Grlbest. 6 mars 1914.

1
Jfr. § 93. Se tvml. kap. 27 og strpl. kap. 27.


§ 91.
Ingen kan beskikkes til Medlem af Høiesteret, førend han er 30 Aar gammel.1

1
Jfr. dl. § 54 og § 55.



E. Almindelige Bestemmelser.

§ 92.
Til Embeder i Staten maa alene udnævnes1 de norske Borgere,2 Mænd eller Kvinder, som tale Landets Sprog, samt
a.
enten ere fødte i Riget af Forældre, der da vare Statens Undersaatter;

b.
eller ere fødte i fremmede Lande af norske Forældre, som paa den Tid ikke vare en anden Stats Undersaatter;

c.
eller som herefter opholde sig i Riget i ti Aar;

d.
eller som af Storthinget vorde naturaliserede.3

Dog kunne Andre beskikkes til Lærere ved Universitetet og de lærde Skoler, til Læger og til Konsuler paa fremmede Steder.4

0
Grlbest. 15 juni 1878, 4 juni 1892, 19 mars 1901, 24 mai 1919 og 10 juni 1952.

1
Jfr. § 21.

2
Jfr. lov 10 juni 2005 nr. 51.

3
Jfr. § 75 m.

4
Jfr. lov 3 mai 2002 nr. 13.


§ 93.
For at sikre den internationale Fred og Sikkerhed eller fremme international Retsorden og Samarbeide kan Storthinget med tre Fjerdedeles Flertal samtykke i, at en international Sammenslutning som Norge er tilsluttet eller slutter sig til, paa et saglig begrænset Omraade, skal kunne udøve Beføielser der efter denne Grundlov ellers tilligge Statens Myndigheder,1 dog ikke Beføielse til at forandre denne Grundlov. Naar Storthinget skal give sit Samtykke, bør, som ved Behandling af Grundlovsforslag, mindst to Trediedele af dets Medlemmer være tilstede.
Bestemmelserne i denne Paragraf gjælde ikke ved Deltagelse i en international Sammenslutning, hvis Beslutninger har alene rent folkeretslig Virkning for Norge.2

0
Opphevet ved beslutn. 18 nov 1905, tilføyd ved grlbest. 8 mars 1962, endret ved grlbest. 3 mars 2006 nr. 270.

1
Jfr. lover 7 juni 1968 nr. 4, 27 nov 1992 nr. 109.

2
Jfr. § 26.


§ 94.
En ny almindelig civil og kriminal Lovbog skal foranstaltes udgivet paa første eller, om dette ikke er muligt, paa andet ordentlige Storthing. Imidlertid blive Statens nu gjældende Love i Kraft, forsaavidt de ei stride imod denne Grundlov eller de provisoriske Anordninger,1 som imidlertid maatte udgives.
De nuværende permanente Skatter vedblive ligeledes til næste Storthing.

1
Se § 17.


§ 95.
Ingen Dispensationer, Protektorier, Moratorier eller Opreisninger maa bevilges, efterat den nye almindelige Lov1 er sat i Kraft.

1
Se § 94. Jfr. § 23, § 101, § 103, § 108.


§ 96.
Ingen kan dømmes uden efter Lov,1 eller straffes uden efter Dom.2 Pinligt Forhør maa ikke finde Sted.3

1
Jfr. § 17. Se Den europeiske menneskerettighetskonvensjonen (inntatt ved lov 21 mai 1999 nr. 30) art. 5 og art. 6.

2
Jfr. strpl. kap. 20. Se Den europeiske menneskerettighetskonvensjonen (inntatt ved lov 21 mai 1999 nr. 30) art. 5 og art. 6 og protokoll nr. 7 art. 2.

3
Jfr. §§ 99 og 102. Se Den europeiske menneskerettighetskonvensjonen (inntatt ved lov 21 mai 1999 nr. 30) art. 3.


§ 97.
Ingen Lov maa gives tilbagevirkende Kraft.1

1
Se strl. § 3. Se Den europeiske menneskerettighetskonvensjonen protokoll nr. 7 (inntatt ved lov 21 mai 1999 nr. 30) art. 3.


§ 98.
Med Sportler, som erlægges til Rettens Betjente, bør ingen Afgifter til Statskassen være forbundne.1

1
Jfr. lov 17 des 1982 nr. 86.


§ 99.
Ingen maa fængslig anholdes, uden i lovbestemt Tilfælde og paa den ved Lovene foreskrevne Maade.1 For ubeføiet Arrest, eller ulovligt Ophold, staa Vedkommende den Fængslede til Ansvar.2
Regjeringen er ikke berettiget til militær Magts Anvendelse mod Statens Medlemmer, uden efter de i Lovgivningen bestemte Former, medmindre nogen Forsamling maatte forstyrre den offentlige Rolighed og den ikke øieblikkelig adskilles, efterat de Artikler i Landsloven, som angaa Oprør, ere den trende Gange lydelig forelæste af den civile Øvrighed.3

1
Jfr. strpl. kap. 14. Se Den europeiske menneskerettighetskonvensjonen (inntatt ved lov 21 mai 1999 nr. 30) art. 4 og art. 5.

2
Jfr. strl. § 117. Se Den europeiske menneskerettighetskonvensjonen (inntatt ved lov 21 mai 1999 nr. 30) art. 5 og art. 6 og protokoll nr. 7 art. 3.

3
Jfr. strl. §§ 136, 137 og 329.


§ 100.
Ytringsfrihed bør finde Sted.
Ingen kan holdes retslig ansvarlig for at have meddelt eller modtaget Oplysninger, Ideer eller Budskab, medmindre det lader sig forsvare holdt op imod Ytringsfrihedens Begrundelse i Sandhedssøgen, Demokrati og Individets frie Meningsdannelse. Det retslige Ansvar bør være foreskrevet i Lov.1
Frimodige Ytringer om Statsstyrelsen og hvilkensomhelst anden Gjenstand ere Enhver tilladte.2 Der kan kun sættes slige klarlig definerede Grændser for denne Ret, hvor særlig tungtveiende Hensyn gjøre det forsvarligt holdt op imod Ytringsfrihedens Begrundelser.
Forhaandscensur og andre forebyggende Forholdsregler kunne ikke benyttes, medmindre det er nødvendigt for at beskytte Børn og Unge imod skadelig Paavirkning fra levende Billeder. Brevcensur kan ei sættes i Værk uden i Anstalter.3
Enhver har Ret til Indsyn i Statens og Kommunernes Akter og  til at følge Forhandlingerne i Retsmøder og folkevalgte Organer. Det kan i Lov fastsættes Begrænsninger i denne Ret ud fra Hensyn til Personvern og af andre tungtveiende Grunde.
Det paaligger Statens Myndigheder at lægge Forholdene til Rette for en aaben og oplyst offentlig Samtale.

0
Endret ved grlbest. 29 okt 2004 nr. 1402, 3 mars 2006 nr. 271.

1
Jfr. lov 22 mai 1902 nr. 10 (strl.) § 92, § 90, §§ 94-96, §§ 104, 130, 135, 135a, 140, 142, 160, 201, 204, §§ 246 til 253, §§ 349, 382, 390, 390a og kap. 43, milstrl. §§ 32, 40, 47, 49, 59, 69 og 86.

2
Se Den europeiske menneskerettighetskonvensjonen (inntatt ved lov 21 mai 1999 nr. 30) art. 9, art. 10 og art. 11.

3
Jfr. strpl. § 186, lov 18 mai 2001 nr. 21 § 30, lov 2 juli 1999 nr. 62 § 4-5.


§ 101.
Nye og bestandige Indskrænkninger i Næringsfriheden bør ikke tilstedes Nogen for Fremtiden.1

1
Jfr. §§ 23 annet ledd og 108.


§ 102.
Hus-Inkvisitioner maa ikke finde Sted, uden i kriminelle Tilfælde.1

1
Se strpl. kap. 15, lov 10 juni 1966 nr. 5 § 12. Se Den europeiske menneskerettighetskonvensjonen (inntatt ved lov 21 mai 1999 nr. 30) art. 8.


§ 103.
Fristed tilstedes ikke dem, som herefter fallere.1

1
Jfr. kkl.


§ 104.
Jord og Boslod kan i intet Tilfælde forbrydes.1

1
Se Den europeiske menneskerettighetskonvensjonen (inntatt ved lov 21 mai 1999 nr. 30) protokoll nr. 1 art. 1.


§ 105.
Fordrer Statens Tarv, at Nogen maa afgive sin rørlige eller urørlige Eiendom til offentlig Brug, saa bør han have fuld Erstatning af Statskassen.1

1
Jfr. lover 1 juni 1917 nr. 1 kap. 2, 23 okt 1959 nr. 3, 6 april 1984 nr. 17.


§ 106.
Saavel Kjøbesummer som Indtægter af det Geistligheden beneficerede Gods skal blot anvendes til Geistlighedens Bedste og Oplysningens Fremme. Milde Stiftelsers Eiendomme skulle blot anvendes til disses Gavn.1

1
Jfr. lov 15 juni 2001 nr. 59.


§ 107.
Odels- og Aasædesretten maa ikke ophæves. De nærmere Betingelser, hvorunder den, til største Nytte for Staten og Gavn for Landalmuen, skal vedblive, fastsættes af det første eller andet følgende Storthing.1

1
Jfr. lov 28 juni 1974 nr. 58.


§ 108.
Ingen Grevskaber, Baronier, Stamhuse og Fideikommisser, maa for Eftertiden oprettes.1

1
Jfr. § 23 annet ledd, lover 23 juni 1888 nr. 3 § 13, 4 juli 1927 nr. 11, 3 mars 1972 nr. 5 § 71, 15 juni 2001 nr. 59 kap. 1.


§ 109.
Enhver Statens Borger1 er i Almindelighed lige forpligtet, i en vis Tid at værne om sit Fædreland, uden Hensyn til Fødsel eller Formue.
Denne Grundsætnings Anvendelse, og de Indskrænkninger den bør undergaa, bestemmes ved Lov.2

0
Grlbest. 12 april 1907.

1
Jfr. lov 10 juni 2005 nr. 51.

2
Jfr. lover 17 juli 1953 nr. 28 og 17 juli 1953 nr. 29.


§ 110.
Det paaligger Statens Myndigheder at lægge Forholdene til Rette for at ethvert arbeidsdygtigt Menneske kan skaffe sig Udkomme ved sit Arbeide.
Nærmere Bestemmelser om Ansattes Medbestemmelsesret paa deres Arbeidsplads, fastsættes ved Lov.1

0
Opphevet ved grlbest. 12 juni 1925 jfr. grlbest. 15 aug 1911, tilføyd ved grlbest. 16 nov 1954, endret ved grlbest. grlbest. 5 mai 1980, 3 mars 2006 nr. 270.

1
Jfr. lover 13 juni 1997 nr. 44 (asl.) § 6-4, § 6-5 og § 6-35, 13 juni 1997 nr. 45 (asal.) § 6-4, § 6-5 og § 6-35, 21 juni 1985 nr. 83 § 2-9 og § 2-13, 30 aug 1991 nr. 71 § 20 og § 33.


§ 110 a.
Det paaligger Statens Myndigheder at lægge Forholdene til Rette for at den samiske Folkegruppe kan sikre og udvikle sit Sprog, sin Kultur og sit Samfundsliv.1

0
Tilføyd ved grlbest. 27 mai 1988 nr. 432, endret ved grlbest. 3 mars 2006 nr. 270.

1
Jfr. lov 12 juni 1987 nr. 56.


§ 110 b.
Enhver har Ret til et Milieu som sikrer Sundhed og til en Natur hvis Produktionsævne og Mangfold bevares. Naturens Ressourcer skulle disponeres ud fra en langsigtig og alsidig Betragtning, der ivaretager denne Ret ogsaa for Efterslægten.
For at ivaretage deres Ret i Henhold til foregaaende Led, ere Borgerne berettigede til Kundskab om Naturmilieuets Tilstand og om Virkningerne af planlagte og iværksatte Indgreb i Naturen.
Statens Myndigheder give nærmere Bestemmelser til at gjennemføre disse Grundsætninger.1

0
Tilføyd ved grlbest. 19 juni 1992 nr. 463.

1
Jfr. lov 9 mai 2003 nr. 31.


§ 110 c.
Det paaligger Statens Myndigheder at respektere og sikre Menneskerettighederne.1
Nærmere Bestemmelser om Gjennemførelsen af Traktater herom fastsættes ved Lov.2

0
Tilføyd ved grlbest. 15 juli 1994 nr. 675.

1
Se bl.a. Den europeiske menneskerettskonvensjon 4 nov 1950, FN-konvensjonen om økonomiske, sosiale og kulturelle rettigheter 16 des 1966, FN-konvensjonen om sivile og politiske rettigheter 16 des 1966, FN-konvensjonen om barnets rettigheter 20 nov 1989 (alle inntatt ved lov 21 mai 1999 nr. 30). FN-konvensjonen om avskaffelse av alle former for rasediskriminering 21 des 1985 (inntatt ved lov 3 juni 2005 nr. 33).

2
Jfr. lover 21 mai 1999 nr. 30, 9 juni 1978 nr. 45, 3 juni 2005 nr. 33 og 10 juni 2005 nr. 40.


§ 111.
Det norske Flags Form og Farver bestemmes ved Lov.1

0
Grlbest. 21 nov 1905.

1
Jfr. lov 10 des 1898 nr. 1.


§ 112.
Viser Erfaring, at nogen Del af denne Kongeriget Norges Grundlov bør forandres, skal Forslaget derom fremsættes paa første, andet eller tredie Storthing efter et nyt Valg og kundgjøres ved Trykken. Men det tilkommer først det første, andet eller tredie Storthing efter næste Valg at bestemme, om den foreslaaede Forandring bør finde Sted eller ei.1 Dog maa saadan Forandring aldrig modsige denne Grundlovs Principer, men alene angaa Modifikationer i enkelte Bestemmelser, der ikke forandre denne Konstitutions Aand, og bør to Trediedele af Storthinget være enige i saadan Forandring.2
En saaledes vedtagen Grundlovsbestemmelse underskrives af Storthingets Præsident og Sekretær og sendes Kongen til Kundgjørelse ved Trykken3 som gjældende Bestemmelse i Kongeriget Norges Grundlov.

0
Grlbest. 24 april 1869, 9 okt 1905, 16 juli 1907, 7 juli 1913, 5 juli 1946 og 13 juli 1990 nr. 550.

1
Jfr. lov 22 mai 1902 nr. 10 (strl.) § 98.

2
Jfr. § 73 annet ledd tredje punktum.

3
Jfr. lov 19 juni 1969 nr. 53 § 1.

 
Kongeriget Norges Grundlov, given i Rigsforsamlingen paa Eidsvold den 17de Mai 1814,
Side 27
